/* XPM */
static char * rose_small_xpm[] = {
"28 48 28 1",
" 	c None",
".	c #FFFFFF",
"+	c #F8CC30",
"@	c #F8C000",
"#	c #C8A430",
"$	c #C89C00",
"%	c #986000",
"&	c #988030",
"*	c #909800",
"=	c #987400",
"-	c #609800",
";	c #606400",
">	c #605430",
",	c #486000",
"'	c #306400",
")	c #303000",
"!	c #003000",
"~	c #E8B400",
"{	c #D8A800",
"]	c #B89000",
"^	c #A88400",
"/	c #886800",
"(	c #705800",
"_	c #201800",
":	c #100C00",
"<	c #002000",
"[	c #202020",
"}	c #101010",
"                            ",
"                            ",
"           +~++             ",
"         +++]##             ",
"       @~@~{##^++           ",
"   ++# ~~#$#{~#{#@@~~+ +    ",
" ++@+#]#~#$#^{##{###~#$+    ",
"  @@~##$+{]$^&~#{##~###+    ",
"  @@@##{###{]#$##]#$#@##    ",
"  @@@#]+~$~@~$&]#$&]+##$+   ",
"  @+@#$##+#@#+~&{=]#]{@##   ",
" +&@@#{#{@#@@#&$$&$^@@{##+  ",
"   @@#{#@@###{#{~=%{@###~   ",
"   +++~#@@]#+#]~@]~@~##]    ",
"    ++@{##]#]##~@@@{##&+    ",
"     {@@#]{{@@@@####&*#     ",
"  ++&]@@@]~]#~##@{&]&&#     ",
" ++#$]@@+{&&]##+#$]#==     #",
"  #@+&{~@@~&##{#@&&&^#  #>} ",
"   +~##]]{$&=&#]]=]#&$ #[[)#",
"    ++###~]/=]]##+ +## [))) ",
"       =&$+#@##]~     &[)))&",
"       ;']####]{+     _)))) ",
"      #># /#{#*>>    &>!))_#",
"      #   &#$&),[#   &[),)[ ",
"      #   &,& <),&   &[)))> ",
"          #> >,_[)    _)))  ",
"           < &><_<>   ;))   ",
"           )  '___)   &#    ",
"          #>&# }_!:& >      ",
"         #>'[[[&## >>>>>&   ",
"          &>))![   ',[!)[_# ",
"          &&[')!& > &))))[[ ",
"          & &>,)>&&  #[))))#",
"          ,  #>>&'     >&&  ",
"          >     -&['&       ",
"          _    & >,,,>      ",
"          )   #  ,;,,)      ",
"          (   >  ),;,,&     ",
"         #>  >   ;,;,;>     ",
"         #& #&   #>,);>     ",
"         &  [     &,;,;     ",
"         &>>       >);&     ",
"         &>&        ;,#     ",
"         >,          &      ",
"         /#                 ",
"         )                  ",
"         )                  "};
