/* XPM */
static char * rest_breve_xpm[] = {
"6 21 2 1",
" 	c None",
".	c black",
"      ",
"      ",
"      ",
"      ",
"      ",
" .... ",
"  ..  ",
"  ..  ",
"  ..  ",
"  ..  ",
" .... ",
"      ",
"      ",
"      ",
"      ",
"      ",
"      ",
"      ",
"      ",
"      ",
"      "};
