%!PS-Adobe-2.0 EPSF-2.0
%%Title: /home/cannam/dia-0.20/rosegarden
%%Creator: dia pre-alpha...
%%CreationDate: Wed Nov 25 22:06:06 1998
%%For: a user
%%Orientation: Portrait
%%BoundingBox: 0 0 1055.888501 926.063821
%%Pages: 0
%%BeginSetup
%%EndSetup
%%Magnification: 1.0000
%%EndComments
/cp {closepath} bind def
/c {curveto} bind def
/f {fill} bind def
/a {arc} bind def
/ef {eofill} bind def
/ex {exch} bind def
/gr {grestore} bind def
/gs {gsave} bind def
/sa {save} bind def
/rs {restore} bind def
/l {lineto} bind def
/m {moveto} bind def
/rm {rmoveto} bind def
/n {newpath} bind def
/s {stroke} bind def
/sh {show} bind def
/slc {setlinecap} bind def
/slj {setlinejoin} bind def
/slw {setlinewidth} bind def
/srgb {setrgbcolor} bind def
/rot {rotate} bind def
/sc {scale} bind def
/sd {setdash} bind def
/ff {findfont} bind def
/sf {setfont} bind def
/scf {scalefont} bind def
/sw {stringwidth pop} bind def
/tr {translate} bind def

/ellipsedict 8 dict def
ellipsedict /mtrx matrix put
/ellipse
{ ellipsedict begin
   /endangle exch def
   /startangle exch def
   /yrad exch def
   /xrad exch def
   /y exch def
   /x exch def   /savematrix mtrx currentmatrix def
   x y tr xrad yrad sc
   0 0 1 startangle endangle arc
   savematrix setmatrix
   end
} def

28.346000 -28.346000 scale
-0.300000 -33.870000 translate
%%EndProlog


1.000000 1.000000 1.000000 srgb
n 0.350000 2.150000 m 0.350000 32.200000 l 21.950000 32.200000 l 21.950000 2.150000 l f
0.100000 slw
[] 0 sd
0 slj
0.000000 0.000000 0.000000 srgb
n 0.350000 2.150000 m 0.350000 32.200000 l 21.950000 32.200000 l 21.950000 2.150000 l cp s
1.000000 1.000000 1.000000 srgb
n 23.700000 1.250000 m 23.700000 27.100000 l 36.900000 27.100000 l 36.900000 1.250000 l f
0.100000 slw
[] 0 sd
0 slj
0.000000 0.000000 0.000000 srgb
n 23.700000 1.250000 m 23.700000 27.100000 l 36.900000 27.100000 l 36.900000 1.250000 l cp s
0.100000 slw
[] 0 sd
1.000000 1.000000 1.000000 srgb
n 26.150000 2.950000 m 26.150000 5.150000 l 35.028400 5.150000 l 35.028400 2.950000 l f
0.000000 0.000000 0.000000 srgb
n 26.150000 2.950000 m 26.150000 5.150000 l 35.028400 5.150000 l 35.028400 2.950000 l cp s
/Courier-Bold ff 1.200000 scf sf
0.000000 0.000000 0.000000 srgb
(Composition) dup sw 2 div 30.589200 ex sub 4.914000 m gs 1 -1 sc sh gr
1.000000 1.000000 1.000000 srgb
n 26.150000 5.150000 m 26.150000 5.550000 l 35.028400 5.550000 l 35.028400 5.150000 l f
0.000000 0.000000 0.000000 srgb
n 26.150000 5.150000 m 26.150000 5.550000 l 35.028400 5.550000 l 35.028400 5.150000 l cp s
1.000000 1.000000 1.000000 srgb
n 26.150000 5.550000 m 26.150000 5.950000 l 35.028400 5.950000 l 35.028400 5.550000 l f
0.000000 0.000000 0.000000 srgb
n 26.150000 5.550000 m 26.150000 5.950000 l 35.028400 5.950000 l 35.028400 5.550000 l cp s
0.100000 slw
[] 0 sd
1.000000 1.000000 1.000000 srgb
n 24.600000 16.400000 m 24.600000 18.600000 l 34.212800 18.600000 l 34.212800 16.400000 l f
0.000000 0.000000 0.000000 srgb
n 24.600000 16.400000 m 24.600000 18.600000 l 34.212800 18.600000 l 34.212800 16.400000 l cp s
/Courier-Bold ff 1.200000 scf sf
0.000000 0.000000 0.000000 srgb
(PartIterator) dup sw 2 div 29.406400 ex sub 18.364000 m gs 1 -1 sc sh gr
1.000000 1.000000 1.000000 srgb
n 24.600000 18.600000 m 24.600000 19.000000 l 34.212800 19.000000 l 34.212800 18.600000 l f
0.000000 0.000000 0.000000 srgb
n 24.600000 18.600000 m 24.600000 19.000000 l 34.212800 19.000000 l 34.212800 18.600000 l cp s
1.000000 1.000000 1.000000 srgb
n 24.600000 19.000000 m 24.600000 19.400000 l 34.212800 19.400000 l 34.212800 19.000000 l f
0.000000 0.000000 0.000000 srgb
n 24.600000 19.000000 m 24.600000 19.400000 l 34.212800 19.400000 l 34.212800 19.000000 l cp s
0.100000 slw
[] 0 sd
1.000000 1.000000 1.000000 srgb
n 28.500000 22.150000 m 28.500000 24.350000 l 34.440800 24.350000 l 34.440800 22.150000 l f
0.000000 0.000000 0.000000 srgb
n 28.500000 22.150000 m 28.500000 24.350000 l 34.440800 24.350000 l 34.440800 22.150000 l cp s
/Courier-Bold ff 1.200000 scf sf
0.000000 0.000000 0.000000 srgb
(Element) dup sw 2 div 31.470400 ex sub 24.114000 m gs 1 -1 sc sh gr
1.000000 1.000000 1.000000 srgb
n 28.500000 24.350000 m 28.500000 24.750000 l 34.440800 24.750000 l 34.440800 24.350000 l f
0.000000 0.000000 0.000000 srgb
n 28.500000 24.350000 m 28.500000 24.750000 l 34.440800 24.750000 l 34.440800 24.350000 l cp s
1.000000 1.000000 1.000000 srgb
n 28.500000 24.750000 m 28.500000 25.150000 l 34.440800 25.150000 l 34.440800 24.750000 l f
0.000000 0.000000 0.000000 srgb
n 28.500000 24.750000 m 28.500000 25.150000 l 34.440800 25.150000 l 34.440800 24.750000 l cp s
0.100000 slw
[] 0 sd
1.000000 1.000000 1.000000 srgb
n 30.350000 10.050000 m 30.350000 12.250000 l 34.087600 12.250000 l 34.087600 10.050000 l f
0.000000 0.000000 0.000000 srgb
n 30.350000 10.050000 m 30.350000 12.250000 l 34.087600 12.250000 l 34.087600 10.050000 l cp s
/Courier-Bold ff 1.200000 scf sf
0.000000 0.000000 0.000000 srgb
(Part) dup sw 2 div 32.218800 ex sub 12.014000 m gs 1 -1 sc sh gr
1.000000 1.000000 1.000000 srgb
n 30.350000 12.250000 m 30.350000 12.650000 l 34.087600 12.650000 l 34.087600 12.250000 l f
0.000000 0.000000 0.000000 srgb
n 30.350000 12.250000 m 30.350000 12.650000 l 34.087600 12.650000 l 34.087600 12.250000 l cp s
1.000000 1.000000 1.000000 srgb
n 30.350000 12.650000 m 30.350000 13.050000 l 34.087600 13.050000 l 34.087600 12.650000 l f
0.000000 0.000000 0.000000 srgb
n 30.350000 12.650000 m 30.350000 13.050000 l 34.087600 13.050000 l 34.087600 12.650000 l cp s
0.100000 slw
[] 0 sd
0 slj
0 slc
0.000000 0.000000 0.000000 srgb
n 32.218800 10.050000 m 32.218800 8.400000 l 30.589200 8.400000 l 30.589200 5.950000 l s
[] 0 sd
0 slj
0 slc
1.000000 1.000000 1.000000 srgb
n 30.589200 5.950000 m 30.829200 6.650000 l 30.589200 7.350000 l 30.349200 6.650000 l f
0.100000 slw
[] 0 sd
0 slj
0 slc
0.000000 0.000000 0.000000 srgb
n 30.589200 5.950000 m 30.829200 6.650000 l 30.589200 7.350000 l 30.349200 6.650000 l cp s
/Courier ff 0.800000 scf sf
0.100000 slw
[1.000000] 0 sd
[0.400000] 0 sd
0 slj
0 slc
0.000000 0.000000 0.000000 srgb
n 29.406400 16.400000 m 29.406400 14.850000 l 32.218800 14.850000 l 32.218800 13.050000 l s
0.100000 slw
[] 0 sd
0 slj
0 slc
0.000000 0.000000 0.000000 srgb
n 32.468800 13.850000 m 32.218800 13.050000 l 31.968800 13.850000 l s
/Courier ff 0.800000 scf sf
0.100000 slw
[] 0 sd
0 slj
0 slc
0.000000 0.000000 0.000000 srgb
n 34.440800 23.650000 m 36.100000 23.650000 l 36.100000 11.550000 l 34.087600 11.550000 l s
[] 0 sd
0 slj
0 slc
1.000000 1.000000 1.000000 srgb
n 34.087600 11.550000 m 34.787600 11.310000 l 35.487600 11.550000 l 34.787600 11.790000 l f
0.100000 slw
[] 0 sd
0 slj
0 slc
0.000000 0.000000 0.000000 srgb
n 34.087600 11.550000 m 34.787600 11.310000 l 35.487600 11.550000 l 34.787600 11.790000 l cp s
/Courier ff 0.800000 scf sf
0.100000 slw
[] 0 sd
0 slj
0 slc
0.000000 0.000000 0.000000 srgb
n 31.470400 22.150000 m 31.470400 20.750000 l 29.406400 20.750000 l 29.406400 19.400000 l s
/Courier ff 0.800000 scf sf
0.100000 slw
[] 0 sd
1.000000 1.000000 1.000000 srgb
n 11.250000 3.050000 m 11.250000 5.250000 l 20.862800 5.250000 l 20.862800 3.050000 l f
0.000000 0.000000 0.000000 srgb
n 11.250000 3.050000 m 11.250000 5.250000 l 20.862800 5.250000 l 20.862800 3.050000 l cp s
/Courier-BoldOblique ff 1.200000 scf sf
0.000000 0.000000 0.000000 srgb
(LayoutEngine) dup sw 2 div 16.056400 ex sub 5.014000 m gs 1 -1 sc sh gr
1.000000 1.000000 1.000000 srgb
n 11.250000 5.250000 m 11.250000 5.650000 l 20.862800 5.650000 l 20.862800 5.250000 l f
0.000000 0.000000 0.000000 srgb
n 11.250000 5.250000 m 11.250000 5.650000 l 20.862800 5.650000 l 20.862800 5.250000 l cp s
1.000000 1.000000 1.000000 srgb
n 11.250000 5.650000 m 11.250000 6.050000 l 20.862800 6.050000 l 20.862800 5.650000 l f
0.000000 0.000000 0.000000 srgb
n 11.250000 5.650000 m 11.250000 6.050000 l 20.862800 6.050000 l 20.862800 5.650000 l cp s
0.100000 slw
[] 0 sd
1.000000 1.000000 1.000000 srgb
n 1.550000 7.950000 m 1.550000 10.150000 l 16.303600 10.150000 l 16.303600 7.950000 l f
0.000000 0.000000 0.000000 srgb
n 1.550000 7.950000 m 1.550000 10.150000 l 16.303600 10.150000 l 16.303600 7.950000 l cp s
/Courier-Bold ff 1.200000 scf sf
0.000000 0.000000 0.000000 srgb
(DefaultLayoutEngine) dup sw 2 div 8.926800 ex sub 9.914000 m gs 1 -1 sc sh gr
1.000000 1.000000 1.000000 srgb
n 1.550000 10.150000 m 1.550000 10.550000 l 16.303600 10.550000 l 16.303600 10.150000 l f
0.000000 0.000000 0.000000 srgb
n 1.550000 10.150000 m 1.550000 10.550000 l 16.303600 10.550000 l 16.303600 10.150000 l cp s
1.000000 1.000000 1.000000 srgb
n 1.550000 10.550000 m 1.550000 10.950000 l 16.303600 10.950000 l 16.303600 10.550000 l f
0.000000 0.000000 0.000000 srgb
n 1.550000 10.550000 m 1.550000 10.950000 l 16.303600 10.950000 l 16.303600 10.550000 l cp s
0.100000 slw
[] 0 sd
1.000000 1.000000 1.000000 srgb
n 11.150000 13.350000 m 11.150000 15.550000 l 21.497200 15.550000 l 21.497200 13.350000 l f
0.000000 0.000000 0.000000 srgb
n 11.150000 13.350000 m 11.150000 15.550000 l 21.497200 15.550000 l 21.497200 13.350000 l cp s
/Courier-BoldOblique ff 1.200000 scf sf
0.000000 0.000000 0.000000 srgb
(DrawingEngine) dup sw 2 div 16.323600 ex sub 15.314000 m gs 1 -1 sc sh gr
1.000000 1.000000 1.000000 srgb
n 11.150000 15.550000 m 11.150000 15.950000 l 21.497200 15.950000 l 21.497200 15.550000 l f
0.000000 0.000000 0.000000 srgb
n 11.150000 15.550000 m 11.150000 15.950000 l 21.497200 15.950000 l 21.497200 15.550000 l cp s
1.000000 1.000000 1.000000 srgb
n 11.150000 15.950000 m 11.150000 16.350000 l 21.497200 16.350000 l 21.497200 15.950000 l f
0.000000 0.000000 0.000000 srgb
n 11.150000 15.950000 m 11.150000 16.350000 l 21.497200 16.350000 l 21.497200 15.950000 l cp s
0.100000 slw
[] 0 sd
1.000000 1.000000 1.000000 srgb
n 1.500000 18.100000 m 1.500000 20.300000 l 16.988000 20.300000 l 16.988000 18.100000 l f
0.000000 0.000000 0.000000 srgb
n 1.500000 18.100000 m 1.500000 20.300000 l 16.988000 20.300000 l 16.988000 18.100000 l cp s
/Courier-Bold ff 1.200000 scf sf
0.000000 0.000000 0.000000 srgb
(DefaultDrawingEngine) dup sw 2 div 9.244000 ex sub 20.064000 m gs 1 -1 sc sh gr
1.000000 1.000000 1.000000 srgb
n 1.500000 20.300000 m 1.500000 20.700000 l 16.988000 20.700000 l 16.988000 20.300000 l f
0.000000 0.000000 0.000000 srgb
n 1.500000 20.300000 m 1.500000 20.700000 l 16.988000 20.700000 l 16.988000 20.300000 l cp s
1.000000 1.000000 1.000000 srgb
n 1.500000 20.700000 m 1.500000 21.100000 l 16.988000 21.100000 l 16.988000 20.700000 l f
0.000000 0.000000 0.000000 srgb
n 1.500000 20.700000 m 1.500000 21.100000 l 16.988000 21.100000 l 16.988000 20.700000 l cp s
0.100000 slw
[] 0 sd
1.000000 1.000000 1.000000 srgb
n 11.000000 23.050000 m 11.000000 25.250000 l 21.347200 25.250000 l 21.347200 23.050000 l f
0.000000 0.000000 0.000000 srgb
n 11.000000 23.050000 m 11.000000 25.250000 l 21.347200 25.250000 l 21.347200 23.050000 l cp s
/Courier-BoldOblique ff 1.200000 scf sf
0.000000 0.000000 0.000000 srgb
(DrawingDevice) dup sw 2 div 16.173600 ex sub 25.014000 m gs 1 -1 sc sh gr
1.000000 1.000000 1.000000 srgb
n 11.000000 25.250000 m 11.000000 25.650000 l 21.347200 25.650000 l 21.347200 25.250000 l f
0.000000 0.000000 0.000000 srgb
n 11.000000 25.250000 m 11.000000 25.650000 l 21.347200 25.650000 l 21.347200 25.250000 l cp s
1.000000 1.000000 1.000000 srgb
n 11.000000 25.650000 m 11.000000 26.050000 l 21.347200 26.050000 l 21.347200 25.650000 l f
0.000000 0.000000 0.000000 srgb
n 11.000000 25.650000 m 11.000000 26.050000 l 21.347200 26.050000 l 21.347200 25.650000 l cp s
0.100000 slw
[] 0 sd
1.000000 1.000000 1.000000 srgb
n 2.850000 28.050000 m 2.850000 30.250000 l 15.400400 30.250000 l 15.400400 28.050000 l f
0.000000 0.000000 0.000000 srgb
n 2.850000 28.050000 m 2.850000 30.250000 l 15.400400 30.250000 l 15.400400 28.050000 l cp s
/Courier-Bold ff 1.200000 scf sf
0.000000 0.000000 0.000000 srgb
(GTKDrawingDevice) dup sw 2 div 9.125200 ex sub 30.014000 m gs 1 -1 sc sh gr
1.000000 1.000000 1.000000 srgb
n 2.850000 30.250000 m 2.850000 30.650000 l 15.400400 30.650000 l 15.400400 30.250000 l f
0.000000 0.000000 0.000000 srgb
n 2.850000 30.250000 m 2.850000 30.650000 l 15.400400 30.650000 l 15.400400 30.250000 l cp s
1.000000 1.000000 1.000000 srgb
n 2.850000 30.650000 m 2.850000 31.050000 l 15.400400 31.050000 l 15.400400 30.650000 l f
0.000000 0.000000 0.000000 srgb
n 2.850000 30.650000 m 2.850000 31.050000 l 15.400400 31.050000 l 15.400400 30.650000 l cp s
0.100000 slw
[] 0 sd
0 slc
0.000000 0.000000 0.000000 srgb
n 9.125200 28.050000 m 16.173600 26.050000 l s
1.000000 1.000000 1.000000 srgb
n 15.836893 26.145542 0.350000 0.350000 0 360 ellipse f
0.000000 0.000000 0.000000 srgb
n 15.836893 26.145542 0.350000 0.350000 0 360 ellipse cp s
/Courier ff 0.800000 scf sf
0.000000 0.000000 0.000000 srgb
() 15.873600 26.050000 m gs 1 -1 sc sh gr
0.100000 slw
[] 0 sd
0 slc
0.000000 0.000000 0.000000 srgb
n 9.244000 18.100000 m 16.323600 16.350000 l s
1.000000 1.000000 1.000000 srgb
n 15.983827 16.433988 0.350000 0.350000 0 360 ellipse f
0.000000 0.000000 0.000000 srgb
n 15.983827 16.433988 0.350000 0.350000 0 360 ellipse cp s
/Courier ff 0.800000 scf sf
0.000000 0.000000 0.000000 srgb
() 16.300000 17.200000 m gs 1 -1 sc sh gr
0.100000 slw
[] 0 sd
0 slc
0.000000 0.000000 0.000000 srgb
n 8.926800 7.950000 m 16.056400 6.050000 l s
1.000000 1.000000 1.000000 srgb
n 15.718203 6.140128 0.350000 0.350000 0 360 ellipse f
0.000000 0.000000 0.000000 srgb
n 15.718203 6.140128 0.350000 0.350000 0 360 ellipse cp s
/Courier ff 0.800000 scf sf
0.000000 0.000000 0.000000 srgb
() 15.756400 6.050000 m gs 1 -1 sc sh gr
0.100000 slw
[0.400000] 0 sd
[0.400000] 0 sd
0 slj
0 slc
0.000000 0.000000 0.000000 srgb
n 8.926800 10.950000 m 8.926800 12.100000 l 16.323600 12.100000 l 16.323600 13.350000 l s
0.100000 slw
[] 0 sd
0 slj
0 slc
0.000000 0.000000 0.000000 srgb
n 16.073600 12.550000 m 16.323600 13.350000 l 16.573600 12.550000 l s
/Courier ff 0.800000 scf sf
0.100000 slw
[0.400000] 0 sd
[0.400000] 0 sd
0 slj
0 slc
0.000000 0.000000 0.000000 srgb
n 9.244000 21.100000 m 9.244000 22.050000 l 16.173600 22.050000 l 16.173600 23.050000 l s
0.100000 slw
[] 0 sd
0 slj
0 slc
0.000000 0.000000 0.000000 srgb
n 15.923600 22.250000 m 16.173600 23.050000 l 16.423600 22.250000 l s
/Courier ff 0.800000 scf sf
0.100000 slw
[0.400000] 0 sd
[0.400000] 0 sd
0 slj
0 slc
0.000000 0.000000 0.000000 srgb
n 20.862800 4.550000 m 20.862800 4.450000 l 26.150000 4.450000 l s
0.100000 slw
[] 0 sd
0 slj
0 slc
0.000000 0.000000 0.000000 srgb
n 25.350000 4.700000 m 26.150000 4.450000 l 25.350000 4.200000 l s
/Courier ff 0.800000 scf sf
0.100000 slw
[0.400000] 0 sd
[0.400000] 0 sd
0 slj
0 slc
0.000000 0.000000 0.000000 srgb
n 21.497200 14.850000 m 22.900000 14.850000 l 22.900000 17.900000 l 24.600000 17.900000 l s
0.100000 slw
[] 0 sd
0 slj
0 slc
0.000000 0.000000 0.000000 srgb
n 23.800000 18.150000 m 24.600000 17.900000 l 23.800000 17.650000 l s
/Courier ff 0.800000 scf sf
/Courier ff 1.000000 scf sf
0.000000 0.000000 0.000000 srgb
(Server) dup sw 2 div 30.200000 ex sub 28.600000 m gs 1 -1 sc sh gr
/Courier ff 1.000000 scf sf
0.000000 0.000000 0.000000 srgb
(Score Editor) dup sw 2 div 11.450000 ex sub 33.700000 m gs 1 -1 sc sh gr
/Courier ff 1.000000 scf sf
0.000000 0.000000 0.000000 srgb
(Sketch class diagram) 24.400000 32.700000 m gs 1 -1 sc sh gr
0.000000 0.000000 0.000000 srgb
(for score layout) 24.400000 33.700000 m gs 1 -1 sc sh gr
