%!PS-Adobe-2.0 EPSF-2.0
%%Title: /home/cannam/rosegarden/doc/performer/performer-uml.dia
%%Creator: dia pre-alpha...
%%CreationDate: Wed Nov 25 22:08:10 1998
%%For: a user
%%Orientation: Portrait
%%BoundingBox: 0 0 3115.055337 2077.053107
%%Pages: 0
%%BeginSetup
%%EndSetup
%%Magnification: 1.0000
%%EndComments
/cp {closepath} bind def
/c {curveto} bind def
/f {fill} bind def
/a {arc} bind def
/ef {eofill} bind def
/ex {exch} bind def
/gr {grestore} bind def
/gs {gsave} bind def
/sa {save} bind def
/rs {restore} bind def
/l {lineto} bind def
/m {moveto} bind def
/rm {rmoveto} bind def
/n {newpath} bind def
/s {stroke} bind def
/sh {show} bind def
/slc {setlinecap} bind def
/slj {setlinejoin} bind def
/slw {setlinewidth} bind def
/srgb {setrgbcolor} bind def
/rot {rotate} bind def
/sc {scale} bind def
/sd {setdash} bind def
/ff {findfont} bind def
/sf {setfont} bind def
/scf {scalefont} bind def
/sw {stringwidth pop} bind def
/tr {translate} bind def

/ellipsedict 8 dict def
ellipsedict /mtrx matrix put
/ellipse
{ ellipsedict begin
   /endangle exch def
   /startangle exch def
   /yrad exch def
   /xrad exch def
   /y exch def
   /x exch def   /savematrix mtrx currentmatrix def
   x y tr xrad yrad sc
   0 0 1 startangle endangle arc
   savematrix setmatrix
   end
} def

28.346000 -28.346000 scale
39.400000 -20.800000 translate
%%EndProlog


0.100000 slw
[] 0 sd
1.000000 1.000000 1.000000 srgb
n 8.250000 2.950000 m 8.250000 5.150000 l 21.804080 5.150000 l 21.804080 2.950000 l f
0.000000 0.000000 0.000000 srgb
n 8.250000 2.950000 m 8.250000 5.150000 l 21.804080 5.150000 l 21.804080 2.950000 l cp s
/Courier-BoldOblique ff 1.200000 scf sf
0.000000 0.000000 0.000000 srgb
(SoundDriver) dup sw 2 div 15.027040 ex sub 4.914000 m gs 1 -1 sc sh gr
1.000000 1.000000 1.000000 srgb
n 8.250000 5.150000 m 8.250000 6.950000 l 21.804080 6.950000 l 21.804080 5.150000 l f
0.000000 0.000000 0.000000 srgb
n 8.250000 5.150000 m 8.250000 6.950000 l 21.804080 6.950000 l 21.804080 5.150000 l cp s
/Courier ff 0.800000 scf sf
0.000000 0.000000 0.000000 srgb
(-m_logicalName: my_wstring) 8.400000 5.914000 m gs 1 -1 sc sh gr
/Courier ff 0.800000 scf sf
0.000000 0.000000 0.000000 srgb
(-m_device: my_wstring) 8.400000 6.714000 m gs 1 -1 sc sh gr
1.000000 1.000000 1.000000 srgb
n 8.250000 6.950000 m 8.250000 10.350000 l 21.804080 10.350000 l 21.804080 6.950000 l f
0.000000 0.000000 0.000000 srgb
n 8.250000 6.950000 m 8.250000 10.350000 l 21.804080 10.350000 l 21.804080 6.950000 l cp s
/Courier ff 0.800000 scf sf
0.000000 0.000000 0.000000 srgb
(+setName\(\)) 8.400000 7.714000 m gs 1 -1 sc sh gr
/Courier ff 0.800000 scf sf
0.000000 0.000000 0.000000 srgb
(+getName\(\)) 8.400000 8.514000 m gs 1 -1 sc sh gr
/Courier-Oblique ff 0.800000 scf sf
0.000000 0.000000 0.000000 srgb
(+getCapabilities\(\)) 8.400000 9.314000 m gs 1 -1 sc sh gr
/Courier-Oblique ff 0.800000 scf sf
0.000000 0.000000 0.000000 srgb
(+getInstrumentList\(\)) 8.400000 10.114000 m gs 1 -1 sc sh gr
0.100000 slw
[] 0 sd
1.000000 1.000000 1.000000 srgb
n 3.300000 17.750000 m 3.300000 19.950000 l 11.444000 19.950000 l 11.444000 17.750000 l f
0.000000 0.000000 0.000000 srgb
n 3.300000 17.750000 m 3.300000 19.950000 l 11.444000 19.950000 l 11.444000 17.750000 l cp s
/Courier-Bold ff 1.200000 scf sf
0.000000 0.000000 0.000000 srgb
(ALSADriver) dup sw 2 div 7.372000 ex sub 19.714000 m gs 1 -1 sc sh gr
1.000000 1.000000 1.000000 srgb
n 3.300000 19.950000 m 3.300000 20.350000 l 11.444000 20.350000 l 11.444000 19.950000 l f
0.000000 0.000000 0.000000 srgb
n 3.300000 19.950000 m 3.300000 20.350000 l 11.444000 20.350000 l 11.444000 19.950000 l cp s
1.000000 1.000000 1.000000 srgb
n 3.300000 20.350000 m 3.300000 20.750000 l 11.444000 20.750000 l 11.444000 20.350000 l f
0.000000 0.000000 0.000000 srgb
n 3.300000 20.350000 m 3.300000 20.750000 l 11.444000 20.750000 l 11.444000 20.350000 l cp s
0.100000 slw
[] 0 sd
0 slj
0 slc
0.000000 0.000000 0.000000 srgb
n 15.014800 10.350000 m 15.014800 13.154811 l 7.372000 13.154811 l 7.372000 17.750000 l s
0 slj
1.000000 1.000000 1.000000 srgb
n 15.414800 11.150000 m 15.014800 10.350000 l 14.614800 11.150000 l f
0.100000 slw
[] 0 sd
0 slj
0.000000 0.000000 0.000000 srgb
n 15.414800 11.150000 m 15.014800 10.350000 l 14.614800 11.150000 l cp s
/Courier ff 0.800000 scf sf
0.100000 slw
[] 0 sd
1.000000 1.000000 1.000000 srgb
n 18.200000 17.700000 m 18.200000 19.900000 l 25.609600 19.900000 l 25.609600 17.700000 l f
0.000000 0.000000 0.000000 srgb
n 18.200000 17.700000 m 18.200000 19.900000 l 25.609600 19.900000 l 25.609600 17.700000 l cp s
/Courier-Bold ff 1.200000 scf sf
0.000000 0.000000 0.000000 srgb
(OSSDriver) dup sw 2 div 21.904800 ex sub 19.664000 m gs 1 -1 sc sh gr
1.000000 1.000000 1.000000 srgb
n 18.200000 19.900000 m 18.200000 20.300000 l 25.609600 20.300000 l 25.609600 19.900000 l f
0.000000 0.000000 0.000000 srgb
n 18.200000 19.900000 m 18.200000 20.300000 l 25.609600 20.300000 l 25.609600 19.900000 l cp s
1.000000 1.000000 1.000000 srgb
n 18.200000 20.300000 m 18.200000 20.700000 l 25.609600 20.700000 l 25.609600 20.300000 l f
0.000000 0.000000 0.000000 srgb
n 18.200000 20.300000 m 18.200000 20.700000 l 25.609600 20.700000 l 25.609600 20.300000 l cp s
0.100000 slw
[] 0 sd
0 slj
0 slc
0.000000 0.000000 0.000000 srgb
n 15.014800 10.350000 m 15.014800 13.154811 l 21.904800 13.154811 l 21.904800 17.700000 l s
0 slj
1.000000 1.000000 1.000000 srgb
n 15.414800 11.150000 m 15.014800 10.350000 l 14.614800 11.150000 l f
0.100000 slw
[] 0 sd
0 slj
0.000000 0.000000 0.000000 srgb
n 15.414800 11.150000 m 15.014800 10.350000 l 14.614800 11.150000 l cp s
/Courier ff 0.800000 scf sf
0.100000 slw
[] 0 sd
1.000000 1.000000 1.000000 srgb
n 48.000000 -12.350000 m 48.000000 -10.150000 l 61.284800 -10.150000 l 61.284800 -12.350000 l f
0.000000 0.000000 0.000000 srgb
n 48.000000 -12.350000 m 48.000000 -10.150000 l 61.284800 -10.150000 l 61.284800 -12.350000 l cp s
/Courier-Bold ff 1.200000 scf sf
0.000000 0.000000 0.000000 srgb
(InstrumentFactory) dup sw 2 div 54.642400 ex sub -10.386000 m gs 1 -1 sc sh gr
1.000000 1.000000 1.000000 srgb
n 48.000000 -10.150000 m 48.000000 -9.750000 l 61.284800 -9.750000 l 61.284800 -10.150000 l f
0.000000 0.000000 0.000000 srgb
n 48.000000 -10.150000 m 48.000000 -9.750000 l 61.284800 -9.750000 l 61.284800 -10.150000 l cp s
1.000000 1.000000 1.000000 srgb
n 48.000000 -9.750000 m 48.000000 -8.750000 l 61.284800 -8.750000 l 61.284800 -9.750000 l f
0.000000 0.000000 0.000000 srgb
n 48.000000 -9.750000 m 48.000000 -8.750000 l 61.284800 -8.750000 l 61.284800 -9.750000 l cp s
/Courier ff 0.800000 scf sf
0.000000 0.000000 0.000000 srgb
(+newInstrument\(\)) 48.150000 -8.986000 m gs 1 -1 sc sh gr
0.100000 slw
[] 0 sd
1.000000 1.000000 1.000000 srgb
n 62.300000 -5.050000 m 62.300000 -2.850000 l 70.444000 -2.850000 l 70.444000 -5.050000 l f
0.000000 0.000000 0.000000 srgb
n 62.300000 -5.050000 m 62.300000 -2.850000 l 70.444000 -2.850000 l 70.444000 -5.050000 l cp s
/Courier-Bold ff 1.200000 scf sf
0.000000 0.000000 0.000000 srgb
(Instrument) dup sw 2 div 66.372000 ex sub -3.086000 m gs 1 -1 sc sh gr
1.000000 1.000000 1.000000 srgb
n 62.300000 -2.850000 m 62.300000 -2.450000 l 70.444000 -2.450000 l 70.444000 -2.850000 l f
0.000000 0.000000 0.000000 srgb
n 62.300000 -2.850000 m 62.300000 -2.450000 l 70.444000 -2.450000 l 70.444000 -2.850000 l cp s
1.000000 1.000000 1.000000 srgb
n 62.300000 -2.450000 m 62.300000 -1.450000 l 70.444000 -1.450000 l 70.444000 -2.450000 l f
0.000000 0.000000 0.000000 srgb
n 62.300000 -2.450000 m 62.300000 -1.450000 l 70.444000 -1.450000 l 70.444000 -2.450000 l cp s
/Courier ff 0.800000 scf sf
0.000000 0.000000 0.000000 srgb
(+playNote\(\)) 62.450000 -1.686000 m gs 1 -1 sc sh gr
0.100000 slw
[] 0 sd
1.000000 1.000000 1.000000 srgb
n 27.900000 -12.350000 m 27.900000 -10.150000 l 39.495680 -10.150000 l 39.495680 -12.350000 l f
0.000000 0.000000 0.000000 srgb
n 27.900000 -12.350000 m 27.900000 -10.150000 l 39.495680 -10.150000 l 39.495680 -12.350000 l cp s
/Courier-Bold ff 1.200000 scf sf
0.000000 0.000000 0.000000 srgb
(DeviceManager) dup sw 2 div 33.697840 ex sub -10.386000 m gs 1 -1 sc sh gr
1.000000 1.000000 1.000000 srgb
n 27.900000 -10.150000 m 27.900000 -9.750000 l 39.495680 -9.750000 l 39.495680 -10.150000 l f
0.000000 0.000000 0.000000 srgb
n 27.900000 -10.150000 m 27.900000 -9.750000 l 39.495680 -9.750000 l 39.495680 -10.150000 l cp s
1.000000 1.000000 1.000000 srgb
n 27.900000 -9.750000 m 27.900000 -7.950000 l 39.495680 -7.950000 l 39.495680 -9.750000 l f
0.000000 0.000000 0.000000 srgb
n 27.900000 -9.750000 m 27.900000 -7.950000 l 39.495680 -7.950000 l 39.495680 -9.750000 l cp s
/Courier ff 0.800000 scf sf
0.000000 0.000000 0.000000 srgb
(-disableDriver\(\): void) 28.050000 -8.986000 m gs 1 -1 sc sh gr
/Courier ff 0.800000 scf sf
0.000000 0.000000 0.000000 srgb
(-enableDriver\(\): void) 28.050000 -8.186000 m gs 1 -1 sc sh gr
0.100000 slw
[] 0 sd
1.000000 1.000000 1.000000 srgb
n 7.700000 -37.450000 m 7.700000 -35.250000 l 23.702080 -35.250000 l 23.702080 -37.450000 l f
0.000000 0.000000 0.000000 srgb
n 7.700000 -37.450000 m 7.700000 -35.250000 l 23.702080 -35.250000 l 23.702080 -37.450000 l cp s
/Courier-Bold ff 1.200000 scf sf
0.000000 0.000000 0.000000 srgb
(Performer) dup sw 2 div 15.701040 ex sub -35.486000 m gs 1 -1 sc sh gr
1.000000 1.000000 1.000000 srgb
n 7.700000 -35.250000 m 7.700000 -31.850000 l 23.702080 -31.850000 l 23.702080 -35.250000 l f
0.000000 0.000000 0.000000 srgb
n 7.700000 -35.250000 m 7.700000 -31.850000 l 23.702080 -31.850000 l 23.702080 -35.250000 l cp s
/Courier ff 0.800000 scf sf
0.000000 0.000000 0.000000 srgb
(-m_deviceManager: DeviceManager) 7.850000 -34.486000 m gs 1 -1 sc sh gr
/Courier ff 0.800000 scf sf
0.000000 0.000000 0.000000 srgb
(-m_masterVolume: Volume) 7.850000 -33.686000 m gs 1 -1 sc sh gr
/Courier ff 0.800000 scf sf
0.000000 0.000000 0.000000 srgb
(-m_masterVolumeStep: VolumeStep) 7.850000 -32.886000 m gs 1 -1 sc sh gr
/Courier ff 0.800000 scf sf
0.000000 0.000000 0.000000 srgb
(-m_position: SoundPosition) 7.850000 -32.086000 m gs 1 -1 sc sh gr
1.000000 1.000000 1.000000 srgb
n 7.700000 -31.850000 m 7.700000 -29.250000 l 23.702080 -29.250000 l 23.702080 -31.850000 l f
0.000000 0.000000 0.000000 srgb
n 7.700000 -31.850000 m 7.700000 -29.250000 l 23.702080 -29.250000 l 23.702080 -31.850000 l cp s
/Courier ff 0.800000 scf sf
0.000000 0.000000 0.000000 srgb
(+getPerformances\(\)) 7.850000 -31.086000 m gs 1 -1 sc sh gr
/Courier ff 0.800000 scf sf
0.000000 0.000000 0.000000 srgb
(+getInstruments\(\)) 7.850000 -30.286000 m gs 1 -1 sc sh gr
/Courier ff 0.800000 scf sf
0.000000 0.000000 0.000000 srgb
(+newPerformance\(\): void) 7.850000 -29.486000 m gs 1 -1 sc sh gr
0.100000 slw
[] 0 sd
0 slj
0 slc
0.000000 0.000000 0.000000 srgb
n 27.900000 -10.150000 m 15.688800 -10.150000 l 15.688800 -29.250000 l s
[] 0 sd
0 slj
0 slc
1.000000 1.000000 1.000000 srgb
n 15.688800 -29.250000 m 15.928800 -28.550000 l 15.688800 -27.850000 l 15.448800 -28.550000 l f
0.100000 slw
[] 0 sd
0 slj
0 slc
0.000000 0.000000 0.000000 srgb
n 15.688800 -29.250000 m 15.928800 -28.550000 l 15.688800 -27.850000 l 15.448800 -28.550000 l cp s
/Courier ff 0.800000 scf sf
0.000000 0.000000 0.000000 srgb
(1) dup sw 27.900000 ex sub -10.390000 m gs 1 -1 sc sh gr
0.100000 slw
[] 0 sd
0 slj
0 slc
0.000000 0.000000 0.000000 srgb
n 48.000000 -10.550000 m 48.000000 -10.150000 l 39.471200 -10.150000 l s
[] 0 sd
0 slj
0 slc
1.000000 1.000000 1.000000 srgb
n 39.471200 -10.150000 m 40.171200 -10.390000 l 40.871200 -10.150000 l 40.171200 -9.910000 l f
0.100000 slw
[] 0 sd
0 slj
0 slc
0.000000 0.000000 0.000000 srgb
n 39.471200 -10.150000 m 40.171200 -10.390000 l 40.871200 -10.150000 l 40.171200 -9.910000 l cp s
/Courier ff 0.800000 scf sf
0.000000 0.000000 0.000000 srgb
(1) 48.000000 -9.886000 m gs 1 -1 sc sh gr
0.100000 slw
[] 0 sd
0 slj
0 slc
0.000000 0.000000 0.000000 srgb
n 18.728400 -2.625129 m 33.685600 -2.625129 l 33.685600 -7.950000 l s
[] 0 sd
0 slj
0 slc
0.000000 0.000000 0.000000 srgb
n 18.728400 -2.625129 m 19.428400 -2.865129 l 20.128400 -2.625129 l 19.428400 -2.385129 l f
/Courier ff 0.800000 scf sf
0.000000 0.000000 0.000000 srgb
(0-n) 18.728400 -2.865129 m gs 1 -1 sc sh gr
0.100000 slw
[] 0 sd
1.000000 1.000000 1.000000 srgb
n 29.700000 0.550000 m 29.700000 2.750000 l 49.618880 2.750000 l 49.618880 0.550000 l f
0.000000 0.000000 0.000000 srgb
n 29.700000 0.550000 m 29.700000 2.750000 l 49.618880 2.750000 l 49.618880 0.550000 l cp s
/Courier-BoldOblique ff 1.200000 scf sf
0.000000 0.000000 0.000000 srgb
(MusicService) dup sw 2 div 39.659440 ex sub 2.514000 m gs 1 -1 sc sh gr
1.000000 1.000000 1.000000 srgb
n 29.700000 2.750000 m 29.700000 4.550000 l 49.618880 4.550000 l 49.618880 2.750000 l f
0.000000 0.000000 0.000000 srgb
n 29.700000 2.750000 m 29.700000 4.550000 l 49.618880 4.550000 l 49.618880 2.750000 l cp s
/Courier ff 0.800000 scf sf
0.000000 0.000000 0.000000 srgb
(-m_name: my_wstring) 29.850000 3.514000 m gs 1 -1 sc sh gr
/Courier ff 0.800000 scf sf
0.000000 0.000000 0.000000 srgb
(+m_driver: DriverType) 29.850000 4.314000 m gs 1 -1 sc sh gr
1.000000 1.000000 1.000000 srgb
n 29.700000 4.550000 m 29.700000 9.550000 l 49.618880 9.550000 l 49.618880 4.550000 l f
0.000000 0.000000 0.000000 srgb
n 29.700000 4.550000 m 29.700000 9.550000 l 49.618880 9.550000 l 49.618880 4.550000 l cp s
/Courier-Oblique ff 0.800000 scf sf
0.000000 0.000000 0.000000 srgb
(+playNote\(\): void) 29.850000 5.314000 m gs 1 -1 sc sh gr
/Courier-Oblique ff 0.800000 scf sf
0.000000 0.000000 0.000000 srgb
(+record\(\): void) 29.850000 6.114000 m gs 1 -1 sc sh gr
/Courier-Oblique ff 0.800000 scf sf
0.000000 0.000000 0.000000 srgb
(+getName\(\): my_wstring) 29.850000 6.914000 m gs 1 -1 sc sh gr
/Courier-Oblique ff 0.800000 scf sf
0.000000 0.000000 0.000000 srgb
(+setName\(name:my_wstring\): void) 29.850000 7.714000 m gs 1 -1 sc sh gr
/Courier-Oblique ff 0.800000 scf sf
0.000000 0.000000 0.000000 srgb
(+setDriver\(driverType:DriverType\): void) 29.850000 8.514000 m gs 1 -1 sc sh gr
/Courier-Oblique ff 0.800000 scf sf
0.000000 0.000000 0.000000 srgb
(+getDriver\(\)\(\): DriverType) 29.850000 9.314000 m gs 1 -1 sc sh gr
0.100000 slw
[] 0 sd
1.000000 1.000000 1.000000 srgb
n 34.600000 16.050000 m 34.600000 18.250000 l 43.478400 18.250000 l 43.478400 16.050000 l f
0.000000 0.000000 0.000000 srgb
n 34.600000 16.050000 m 34.600000 18.250000 l 43.478400 18.250000 l 43.478400 16.050000 l cp s
/Courier-Bold ff 1.200000 scf sf
0.000000 0.000000 0.000000 srgb
(MIDIService) dup sw 2 div 39.039200 ex sub 18.014000 m gs 1 -1 sc sh gr
1.000000 1.000000 1.000000 srgb
n 34.600000 18.250000 m 34.600000 18.650000 l 43.478400 18.650000 l 43.478400 18.250000 l f
0.000000 0.000000 0.000000 srgb
n 34.600000 18.250000 m 34.600000 18.650000 l 43.478400 18.650000 l 43.478400 18.250000 l cp s
1.000000 1.000000 1.000000 srgb
n 34.600000 18.650000 m 34.600000 19.050000 l 43.478400 19.050000 l 43.478400 18.650000 l f
0.000000 0.000000 0.000000 srgb
n 34.600000 18.650000 m 34.600000 19.050000 l 43.478400 19.050000 l 43.478400 18.650000 l cp s
0.100000 slw
[] 0 sd
0 slj
0 slc
0.000000 0.000000 0.000000 srgb
n 39.647200 0.550000 m 39.471200 0.550000 l 39.471200 -7.950000 l s
[] 0 sd
0 slj
0 slc
1.000000 1.000000 1.000000 srgb
n 39.471200 -7.950000 m 39.711200 -7.250000 l 39.471200 -6.550000 l 39.231200 -7.250000 l f
0.100000 slw
[] 0 sd
0 slj
0 slc
0.000000 0.000000 0.000000 srgb
n 39.471200 -7.950000 m 39.711200 -7.250000 l 39.471200 -6.550000 l 39.231200 -7.250000 l cp s
/Courier ff 0.800000 scf sf
0.100000 slw
[] 0 sd
0 slj
0 slc
0.000000 0.000000 0.000000 srgb
n 39.647200 9.550000 m 39.647200 16.050000 l 39.039200 16.050000 l s
0 slj
1.000000 1.000000 1.000000 srgb
n 40.047200 10.350000 m 39.647200 9.550000 l 39.247200 10.350000 l f
0.100000 slw
[] 0 sd
0 slj
0.000000 0.000000 0.000000 srgb
n 40.047200 10.350000 m 39.647200 9.550000 l 39.247200 10.350000 l cp s
/Courier ff 0.800000 scf sf
0.100000 slw
[] 0 sd
1.000000 1.000000 1.000000 srgb
n 57.000101 16.050000 m 57.000101 18.250000 l 69.550501 18.250000 l 69.550501 16.050000 l f
0.000000 0.000000 0.000000 srgb
n 57.000101 16.050000 m 57.000101 18.250000 l 69.550501 18.250000 l 69.550501 16.050000 l cp s
/Courier-Bold ff 1.200000 scf sf
0.000000 0.000000 0.000000 srgb
(MIDISynthService) dup sw 2 div 63.275301 ex sub 18.014000 m gs 1 -1 sc sh gr
1.000000 1.000000 1.000000 srgb
n 57.000101 18.250000 m 57.000101 18.650000 l 69.550501 18.650000 l 69.550501 18.250000 l f
0.000000 0.000000 0.000000 srgb
n 57.000101 18.250000 m 57.000101 18.650000 l 69.550501 18.650000 l 69.550501 18.250000 l cp s
1.000000 1.000000 1.000000 srgb
n 57.000101 18.650000 m 57.000101 19.050000 l 69.550501 19.050000 l 69.550501 18.650000 l f
0.000000 0.000000 0.000000 srgb
n 57.000101 18.650000 m 57.000101 19.050000 l 69.550501 19.050000 l 69.550501 18.650000 l cp s
0.100000 slw
[] 0 sd
1.000000 1.000000 1.000000 srgb
n 46.800101 16.050000 m 46.800101 18.250000 l 54.944101 18.250000 l 54.944101 16.050000 l f
0.000000 0.000000 0.000000 srgb
n 46.800101 16.050000 m 46.800101 18.250000 l 54.944101 18.250000 l 54.944101 16.050000 l cp s
/Courier-Bold ff 1.200000 scf sf
0.000000 0.000000 0.000000 srgb
(DSPService) dup sw 2 div 50.872101 ex sub 18.014000 m gs 1 -1 sc sh gr
1.000000 1.000000 1.000000 srgb
n 46.800101 18.250000 m 46.800101 18.650000 l 54.944101 18.650000 l 54.944101 18.250000 l f
0.000000 0.000000 0.000000 srgb
n 46.800101 18.250000 m 46.800101 18.650000 l 54.944101 18.650000 l 54.944101 18.250000 l cp s
1.000000 1.000000 1.000000 srgb
n 46.800101 18.650000 m 46.800101 19.050000 l 54.944101 19.050000 l 54.944101 18.650000 l f
0.000000 0.000000 0.000000 srgb
n 46.800101 18.650000 m 46.800101 19.050000 l 54.944101 19.050000 l 54.944101 18.650000 l cp s
0.100000 slw
[] 0 sd
0 slj
0 slc
0.000000 0.000000 0.000000 srgb
n 39.647200 9.550000 m 39.647200 12.574871 l 50.872101 12.574871 l 50.872101 16.050000 l s
0 slj
1.000000 1.000000 1.000000 srgb
n 40.047200 10.350000 m 39.647200 9.550000 l 39.247200 10.350000 l f
0.100000 slw
[] 0 sd
0 slj
0.000000 0.000000 0.000000 srgb
n 40.047200 10.350000 m 39.647200 9.550000 l 39.247200 10.350000 l cp s
/Courier ff 0.800000 scf sf
0.100000 slw
[] 0 sd
0 slj
0 slc
0.000000 0.000000 0.000000 srgb
n 39.647200 9.550000 m 39.647200 12.574871 l 63.275301 12.574871 l 63.275301 16.050000 l s
0 slj
1.000000 1.000000 1.000000 srgb
n 40.047200 10.350000 m 39.647200 9.550000 l 39.247200 10.350000 l f
0.100000 slw
[] 0 sd
0 slj
0.000000 0.000000 0.000000 srgb
n 40.047200 10.350000 m 39.647200 9.550000 l 39.247200 10.350000 l cp s
/Courier ff 0.800000 scf sf
0.100000 slw
[] 0 sd
0 slj
0 slc
0.000000 0.000000 0.000000 srgb
n 61.284800 -10.550000 m 66.372000 -10.550000 l 66.372000 -5.050000 l s
0.100000 slw
[] 0 sd
0 slj
0 slc
0.000000 0.000000 0.000000 srgb
n 65.972000 -5.850000 m 66.372000 -5.050000 l 66.772000 -5.850000 l s
/Courier ff 0.800000 scf sf
0.000000 0.000000 0.000000 srgb
(creates) dup sw 2 div 63.828400 ex sub -10.790000 m gs 1 -1 sc sh gr
0.100000 slw
[] 0 sd
1.000000 1.000000 1.000000 srgb
n -21.200000 -10.975000 m -21.200000 -8.775000 l -8.135520 -8.775000 l -8.135520 -10.975000 l f
0.000000 0.000000 0.000000 srgb
n -21.200000 -10.975000 m -21.200000 -8.775000 l -8.135520 -8.775000 l -8.135520 -10.975000 l cp s
/Courier-Bold ff 1.200000 scf sf
0.000000 0.000000 0.000000 srgb
(PerformerNote) dup sw 2 div -14.667760 ex sub -9.011000 m gs 1 -1 sc sh gr
1.000000 1.000000 1.000000 srgb
n -21.200000 -8.775000 m -21.200000 -4.575000 l -8.135520 -4.575000 l -8.135520 -8.775000 l f
0.000000 0.000000 0.000000 srgb
n -21.200000 -8.775000 m -21.200000 -4.575000 l -8.135520 -4.575000 l -8.135520 -8.775000 l cp s
/Courier ff 0.800000 scf sf
0.000000 0.000000 0.000000 srgb
(-m_duration: ) -21.050000 -8.011000 m gs 1 -1 sc sh gr
/Courier ff 0.800000 scf sf
0.000000 0.000000 0.000000 srgb
(-m_pitch: ) -21.050000 -7.211000 m gs 1 -1 sc sh gr
/Courier ff 0.800000 scf sf
0.000000 0.000000 0.000000 srgb
(-m_velocity: ) -21.050000 -6.411000 m gs 1 -1 sc sh gr
/Courier ff 0.800000 scf sf
0.000000 0.000000 0.000000 srgb
(-m_instrument: Instrument) -21.050000 -5.611000 m gs 1 -1 sc sh gr
/Courier ff 0.800000 scf sf
0.000000 0.000000 0.000000 srgb
(-m_style: Style) -21.050000 -4.811000 m gs 1 -1 sc sh gr
1.000000 1.000000 1.000000 srgb
n -21.200000 -4.575000 m -21.200000 -1.175000 l -8.135520 -1.175000 l -8.135520 -4.575000 l f
0.000000 0.000000 0.000000 srgb
n -21.200000 -4.575000 m -21.200000 -1.175000 l -8.135520 -1.175000 l -8.135520 -4.575000 l cp s
/Courier ff 0.800000 scf sf
0.000000 0.000000 0.000000 srgb
(+getPitch\(\)) -21.050000 -3.811000 m gs 1 -1 sc sh gr
/Courier ff 0.800000 scf sf
0.000000 0.000000 0.000000 srgb
(+getVelocity\(\)) -21.050000 -3.011000 m gs 1 -1 sc sh gr
/Courier ff 0.800000 scf sf
0.000000 0.000000 0.000000 srgb
(+getInstrument\(\)) -21.050000 -2.211000 m gs 1 -1 sc sh gr
/Courier ff 0.800000 scf sf
0.000000 0.000000 0.000000 srgb
(+getStyle\(\)) -21.050000 -1.411000 m gs 1 -1 sc sh gr
0.100000 slw
[] 0 sd
1.000000 1.000000 1.000000 srgb
n 29.525000 -34.424998 m 29.525000 -32.224998 l 40.141480 -32.224998 l 40.141480 -34.424998 l f
0.000000 0.000000 0.000000 srgb
n 29.525000 -34.424998 m 29.525000 -32.224998 l 40.141480 -32.224998 l 40.141480 -34.424998 l cp s
/Courier-Bold ff 1.200000 scf sf
0.000000 0.000000 0.000000 srgb
(Configurator) dup sw 2 div 34.833240 ex sub -32.460998 m gs 1 -1 sc sh gr
1.000000 1.000000 1.000000 srgb
n 29.525000 -32.224998 m 29.525000 -28.824998 l 40.141480 -28.824998 l 40.141480 -32.224998 l f
0.000000 0.000000 0.000000 srgb
n 29.525000 -32.224998 m 29.525000 -28.824998 l 40.141480 -28.824998 l 40.141480 -32.224998 l cp s
/Courier ff 0.800000 scf sf
0.000000 0.000000 0.000000 srgb
(+getMaxVolume: ) 29.675000 -31.460998 m gs 1 -1 sc sh gr
0.050000 slw
0.000000 0.000000 0.000000 srgb
n 29.675000 -31.380998 m 37.243480 -31.380998 l s
0.100000 slw
/Courier ff 0.800000 scf sf
0.000000 0.000000 0.000000 srgb
(+setMaxVolume: ) 29.675000 -30.660998 m gs 1 -1 sc sh gr
0.050000 slw
0.000000 0.000000 0.000000 srgb
n 29.675000 -30.580998 m 37.243480 -30.580998 l s
0.100000 slw
/Courier ff 0.800000 scf sf
0.000000 0.000000 0.000000 srgb
(+getVolumeStepSize: ) 29.675000 -29.860998 m gs 1 -1 sc sh gr
0.050000 slw
0.000000 0.000000 0.000000 srgb
n 29.675000 -29.780998 m 39.691480 -29.780998 l s
0.100000 slw
/Courier ff 0.800000 scf sf
0.000000 0.000000 0.000000 srgb
(+setVolumeStepSize: ) 29.675000 -29.060998 m gs 1 -1 sc sh gr
0.050000 slw
0.000000 0.000000 0.000000 srgb
n 29.675000 -28.980998 m 39.691480 -28.980998 l s
0.100000 slw
1.000000 1.000000 1.000000 srgb
n 29.525000 -28.824998 m 29.525000 -28.424998 l 40.141480 -28.424998 l 40.141480 -28.824998 l f
0.000000 0.000000 0.000000 srgb
n 29.525000 -28.824998 m 29.525000 -28.424998 l 40.141480 -28.424998 l 40.141480 -28.824998 l cp s
0.100000 slw
[] 0 sd
1.000000 1.000000 1.000000 srgb
n -21.150001 -20.724998 m -21.150001 -18.524998 l -7.595921 -18.524998 l -7.595921 -20.724998 l f
0.000000 0.000000 0.000000 srgb
n -21.150001 -20.724998 m -21.150001 -18.524998 l -7.595921 -18.524998 l -7.595921 -20.724998 l cp s
/Courier-Bold ff 1.200000 scf sf
0.000000 0.000000 0.000000 srgb
(Performance) dup sw 2 div -14.372961 ex sub -18.760998 m gs 1 -1 sc sh gr
1.000000 1.000000 1.000000 srgb
n -21.150001 -18.524998 m -21.150001 -17.524998 l -7.595921 -17.524998 l -7.595921 -18.524998 l f
0.000000 0.000000 0.000000 srgb
n -21.150001 -18.524998 m -21.150001 -17.524998 l -7.595921 -17.524998 l -7.595921 -18.524998 l cp s
/Courier ff 0.800000 scf sf
0.000000 0.000000 0.000000 srgb
(-m_tempo: PerformanceTempo) -21.000001 -17.760998 m gs 1 -1 sc sh gr
1.000000 1.000000 1.000000 srgb
n -21.150001 -17.524998 m -21.150001 -17.124998 l -7.595921 -17.124998 l -7.595921 -17.524998 l f
0.000000 0.000000 0.000000 srgb
n -21.150001 -17.524998 m -21.150001 -17.124998 l -7.595921 -17.124998 l -7.595921 -17.524998 l cp s
0.100000 slw
[] 0 sd
1.000000 1.000000 1.000000 srgb
n -13.032021 -52.174998 m -13.032021 -49.974998 l 7.866059 -49.974998 l 7.866059 -52.174998 l f
0.000000 0.000000 0.000000 srgb
n -13.032021 -52.174998 m -13.032021 -49.974998 l 7.866059 -49.974998 l 7.866059 -52.174998 l cp s
/Courier-BoldOblique ff 1.200000 scf sf
0.000000 0.000000 0.000000 srgb
(VolumeController) dup sw 2 div -2.582981 ex sub -50.210998 m gs 1 -1 sc sh gr
1.000000 1.000000 1.000000 srgb
n -13.032021 -49.974998 m -13.032021 -49.574998 l 7.866059 -49.574998 l 7.866059 -49.974998 l f
0.000000 0.000000 0.000000 srgb
n -13.032021 -49.974998 m -13.032021 -49.574998 l 7.866059 -49.574998 l 7.866059 -49.974998 l cp s
1.000000 1.000000 1.000000 srgb
n -13.032021 -49.574998 m -13.032021 -41.374998 l 7.866059 -41.374998 l 7.866059 -49.574998 l f
0.000000 0.000000 0.000000 srgb
n -13.032021 -49.574998 m -13.032021 -41.374998 l 7.866059 -41.374998 l 7.866059 -49.574998 l cp s
/Courier-Oblique ff 0.800000 scf sf
0.000000 0.000000 0.000000 srgb
(+setSoundPosition\(sp:SoundPosition\): void) -12.882021 -48.810998 m gs 1 -1 sc sh gr
/Courier-Oblique ff 0.800000 scf sf
0.000000 0.000000 0.000000 srgb
(+getSoundPosition\(\): SoundPosition) -12.882021 -48.010998 m gs 1 -1 sc sh gr
/Courier-Oblique ff 0.800000 scf sf
0.000000 0.000000 0.000000 srgb
(+setVolume\(v:Volume\): void) -12.882021 -47.210998 m gs 1 -1 sc sh gr
/Courier-Oblique ff 0.800000 scf sf
0.000000 0.000000 0.000000 srgb
(+getVolume\(\): Volume) -12.882021 -46.410998 m gs 1 -1 sc sh gr
/Courier-Oblique ff 0.800000 scf sf
0.000000 0.000000 0.000000 srgb
(+maxVolume\(\): void) -12.882021 -45.610998 m gs 1 -1 sc sh gr
/Courier-Oblique ff 0.800000 scf sf
0.000000 0.000000 0.000000 srgb
(+mute\(\): void) -12.882021 -44.810998 m gs 1 -1 sc sh gr
/Courier-Oblique ff 0.800000 scf sf
0.000000 0.000000 0.000000 srgb
(+incrementVolume\(steps:short\): Volume) -12.882021 -44.010998 m gs 1 -1 sc sh gr
/Courier-Oblique ff 0.800000 scf sf
0.000000 0.000000 0.000000 srgb
(+decrementVolume\(steps:short\): Volume) -12.882021 -43.210998 m gs 1 -1 sc sh gr
/Courier-Oblique ff 0.800000 scf sf
0.000000 0.000000 0.000000 srgb
(+setVolumeStep\(vs:VolumeStep\): void) -12.882021 -42.410998 m gs 1 -1 sc sh gr
/Courier-Oblique ff 0.800000 scf sf
0.000000 0.000000 0.000000 srgb
(+getVolumeStep\(\): VolumeStep) -12.882021 -41.610998 m gs 1 -1 sc sh gr
0.100000 slw
[1.000000] 0 sd
[0.400000] 0 sd
0 slj
0 slc
0.000000 0.000000 0.000000 srgb
n -2.595221 -41.374998 m -2.595221 -37.450000 l 15.688800 -37.450000 l s
0 slj
1.000000 1.000000 1.000000 srgb
n -2.195221 -40.574998 m -2.595221 -41.374998 l -2.995221 -40.574998 l f
0.100000 slw
[] 0 sd
0 slj
0.000000 0.000000 0.000000 srgb
n -2.195221 -40.574998 m -2.595221 -41.374998 l -2.995221 -40.574998 l cp s
/Courier ff 0.800000 scf sf
0.100000 slw
[] 0 sd
1.000000 1.000000 1.000000 srgb
n -24.949999 -31.274998 m -24.949999 -29.074998 l -17.540399 -29.074998 l -17.540399 -31.274998 l f
0.000000 0.000000 0.000000 srgb
n -24.949999 -31.274998 m -24.949999 -29.074998 l -17.540399 -29.074998 l -17.540399 -31.274998 l cp s
/Courier-Bold ff 1.200000 scf sf
0.000000 0.000000 0.000000 srgb
(Conductor) dup sw 2 div -21.245199 ex sub -29.310998 m gs 1 -1 sc sh gr
1.000000 1.000000 1.000000 srgb
n -24.949999 -29.074998 m -24.949999 -28.674998 l -17.540399 -28.674998 l -17.540399 -29.074998 l f
0.000000 0.000000 0.000000 srgb
n -24.949999 -29.074998 m -24.949999 -28.674998 l -17.540399 -28.674998 l -17.540399 -29.074998 l cp s
1.000000 1.000000 1.000000 srgb
n -24.949999 -28.674998 m -24.949999 -28.274998 l -17.540399 -28.274998 l -17.540399 -28.674998 l f
0.000000 0.000000 0.000000 srgb
n -24.949999 -28.674998 m -24.949999 -28.274998 l -17.540399 -28.274998 l -17.540399 -28.674998 l cp s
0.100000 slw
[] 0 sd
1.000000 1.000000 1.000000 srgb
n -8.249999 -29.774998 m -8.249999 -27.574998 l -1.574799 -27.574998 l -1.574799 -29.774998 l f
0.000000 0.000000 0.000000 srgb
n -8.249999 -29.774998 m -8.249999 -27.574998 l -1.574799 -27.574998 l -1.574799 -29.774998 l cp s
/Courier-Bold ff 1.200000 scf sf
0.000000 0.000000 0.000000 srgb
(Musician) dup sw 2 div -4.912399 ex sub -27.810998 m gs 1 -1 sc sh gr
1.000000 1.000000 1.000000 srgb
n -8.249999 -27.574998 m -8.249999 -27.174998 l -1.574799 -27.174998 l -1.574799 -27.574998 l f
0.000000 0.000000 0.000000 srgb
n -8.249999 -27.574998 m -8.249999 -27.174998 l -1.574799 -27.174998 l -1.574799 -27.574998 l cp s
1.000000 1.000000 1.000000 srgb
n -8.249999 -27.174998 m -8.249999 -26.774998 l -1.574799 -26.774998 l -1.574799 -27.174998 l f
0.000000 0.000000 0.000000 srgb
n -8.249999 -27.174998 m -8.249999 -26.774998 l -1.574799 -26.774998 l -1.574799 -27.174998 l cp s
0.100000 slw
[] 0 sd
1.000000 1.000000 1.000000 srgb
n 28.350001 -37.774998 m 40.649361 -37.774998 l 41.249361 -37.174998 l 41.249361 -35.274998 l 28.350001 -35.274998 l f
0.000000 0.000000 0.000000 srgb
n 28.350001 -37.774998 m 40.649361 -37.774998 l 41.249361 -37.174998 l 41.249361 -35.274998 l 28.350001 -35.274998 l cp s
0.050000 slw
0.000000 0.000000 0.000000 srgb
n 40.649361 -37.774998 m 40.649361 -37.174998 l 41.249361 -37.174998 l s
/Courier ff 0.800000 scf sf
0.000000 0.000000 0.000000 srgb
(Currently implemented in) 28.700001 -36.452998 m gs 1 -1 sc sh gr
0.000000 0.000000 0.000000 srgb
(PerformerCommon.h) 28.700001 -35.652998 m gs 1 -1 sc sh gr
0.100000 slw
[] 0 sd
1.000000 1.000000 1.000000 srgb
n 9.850000 -4.125129 m 9.850000 -1.925129 l 18.728400 -1.925129 l 18.728400 -4.125129 l f
0.000000 0.000000 0.000000 srgb
n 9.850000 -4.125129 m 9.850000 -1.925129 l 18.728400 -1.925129 l 18.728400 -4.125129 l cp s
/Courier-Bold ff 1.200000 scf sf
0.000000 0.000000 0.000000 srgb
(SoundDevice) dup sw 2 div 14.289200 ex sub -2.161129 m gs 1 -1 sc sh gr
1.000000 1.000000 1.000000 srgb
n 9.850000 -1.925129 m 9.850000 -1.525129 l 18.728400 -1.525129 l 18.728400 -1.925129 l f
0.000000 0.000000 0.000000 srgb
n 9.850000 -1.925129 m 9.850000 -1.525129 l 18.728400 -1.525129 l 18.728400 -1.925129 l cp s
1.000000 1.000000 1.000000 srgb
n 9.850000 -1.525129 m 9.850000 -1.125129 l 18.728400 -1.125129 l 18.728400 -1.525129 l f
0.000000 0.000000 0.000000 srgb
n 9.850000 -1.525129 m 9.850000 -1.125129 l 18.728400 -1.125129 l 18.728400 -1.525129 l cp s
0.100000 slw
[] 0 sd
0 slj
0 slc
0.000000 0.000000 0.000000 srgb
n -14.385201 -20.724998 m -14.385201 -25.274999 l -21.050000 -25.274999 l -21.050000 -28.274998 l s
[] 0 sd
0 slj
0 slc
1.000000 1.000000 1.000000 srgb
n -21.050000 -28.274998 m -20.810000 -27.574998 l -21.050000 -26.874998 l -21.290000 -27.574998 l f
0.100000 slw
[] 0 sd
0 slj
0 slc
0.000000 0.000000 0.000000 srgb
n -21.050000 -28.274998 m -20.810000 -27.574998 l -21.050000 -26.874998 l -21.290000 -27.574998 l cp s
/Courier ff 0.800000 scf sf
0.100000 slw
[] 0 sd
1.000000 1.000000 1.000000 srgb
n -39.350000 -31.124998 m -39.350000 -28.924998 l -29.002800 -28.924998 l -29.002800 -31.124998 l f
0.000000 0.000000 0.000000 srgb
n -39.350000 -31.124998 m -39.350000 -28.924998 l -29.002800 -28.924998 l -29.002800 -31.124998 l cp s
/Courier-Bold ff 1.200000 scf sf
0.000000 0.000000 0.000000 srgb
(MusicianGroup) dup sw 2 div -34.176400 ex sub -29.160998 m gs 1 -1 sc sh gr
1.000000 1.000000 1.000000 srgb
n -39.350000 -28.924998 m -39.350000 -28.524998 l -29.002800 -28.524998 l -29.002800 -28.924998 l f
0.000000 0.000000 0.000000 srgb
n -39.350000 -28.924998 m -39.350000 -28.524998 l -29.002800 -28.524998 l -29.002800 -28.924998 l cp s
1.000000 1.000000 1.000000 srgb
n -39.350000 -28.524998 m -39.350000 -28.124998 l -29.002800 -28.124998 l -29.002800 -28.524998 l f
0.000000 0.000000 0.000000 srgb
n -39.350000 -28.524998 m -39.350000 -28.124998 l -29.002800 -28.124998 l -29.002800 -28.524998 l cp s
0.100000 slw
[] 0 sd
0 slj
0 slc
0.000000 0.000000 0.000000 srgb
n -21.150001 -17.124998 m -21.150001 -23.824998 l -34.176400 -23.824998 l -34.176400 -28.124998 l s
[] 0 sd
0 slj
0 slc
1.000000 1.000000 1.000000 srgb
n -34.176400 -28.124998 m -33.936400 -27.424998 l -34.176400 -26.724998 l -34.416400 -27.424998 l f
0.100000 slw
[] 0 sd
0 slj
0 slc
0.000000 0.000000 0.000000 srgb
n -34.176400 -28.124998 m -33.936400 -27.424998 l -34.176400 -26.724998 l -34.416400 -27.424998 l cp s
/Courier ff 0.800000 scf sf
0.100000 slw
[] 0 sd
0 slj
0 slc
0.000000 0.000000 0.000000 srgb
n -7.620401 -20.724998 m -7.620401 -22.924998 l -4.912399 -22.924998 l -4.912399 -26.774998 l s
[] 0 sd
0 slj
0 slc
1.000000 1.000000 1.000000 srgb
n -4.912399 -26.774998 m -4.672399 -26.074998 l -4.912399 -25.374998 l -5.152399 -26.074998 l f
0.100000 slw
[] 0 sd
0 slj
0 slc
0.000000 0.000000 0.000000 srgb
n -4.912399 -26.774998 m -4.672399 -26.074998 l -4.912399 -25.374998 l -5.152399 -26.074998 l cp s
/Courier ff 0.800000 scf sf
0.100000 slw
[] 0 sd
0 slj
0 slc
0.000000 0.000000 0.000000 srgb
n -7.620401 -18.924998 m 2.858818 -18.924998 l 2.858818 -33.350000 l 7.700000 -33.350000 l s
[] 0 sd
0 slj
0 slc
1.000000 1.000000 1.000000 srgb
n 7.700000 -33.350000 m 7.000000 -33.110000 l 6.300000 -33.350000 l 7.000000 -33.590000 l f
0.100000 slw
[] 0 sd
0 slj
0 slc
0.000000 0.000000 0.000000 srgb
n 7.700000 -33.350000 m 7.000000 -33.110000 l 6.300000 -33.350000 l 7.000000 -33.590000 l cp s
/Courier ff 0.800000 scf sf
0.100000 slw
[0.400000] 0 sd
[0.400000] 0 sd
0 slj
0 slc
0.000000 0.000000 0.000000 srgb
n -2.595221 -41.374998 m -2.595221 -37.524998 l -33.850000 -37.524998 l -33.850000 -31.124998 l -34.176400 -31.124998 l s
0 slj
1.000000 1.000000 1.000000 srgb
n -2.195221 -40.574998 m -2.595221 -41.374998 l -2.995221 -40.574998 l f
0.100000 slw
[] 0 sd
0 slj
0.000000 0.000000 0.000000 srgb
n -2.195221 -40.574998 m -2.595221 -41.374998 l -2.995221 -40.574998 l cp s
/Courier ff 0.800000 scf sf
0.100000 slw
[0.400000] 0 sd
[0.400000] 0 sd
0 slj
0 slc
0.000000 0.000000 0.000000 srgb
n -2.595221 -41.374998 m -2.595221 -37.524998 l -21.245199 -37.524998 l -21.245199 -31.274998 l s
0 slj
1.000000 1.000000 1.000000 srgb
n -2.195221 -40.574998 m -2.595221 -41.374998 l -2.995221 -40.574998 l f
0.100000 slw
[] 0 sd
0 slj
0.000000 0.000000 0.000000 srgb
n -2.195221 -40.574998 m -2.595221 -41.374998 l -2.995221 -40.574998 l cp s
/Courier ff 0.800000 scf sf
0.100000 slw
[0.400000] 0 sd
[0.400000] 0 sd
0 slj
0 slc
0.000000 0.000000 0.000000 srgb
n -2.595221 -41.374998 m -2.595221 -29.774998 l -4.912399 -29.774998 l s
0 slj
1.000000 1.000000 1.000000 srgb
n -2.195221 -40.574998 m -2.595221 -41.374998 l -2.995221 -40.574998 l f
0.100000 slw
[] 0 sd
0 slj
0.000000 0.000000 0.000000 srgb
n -2.195221 -40.574998 m -2.595221 -41.374998 l -2.995221 -40.574998 l cp s
/Courier ff 0.800000 scf sf
0.100000 slw
[] 0 sd
1.000000 1.000000 1.000000 srgb
n -39.300000 -52.424998 m -39.300000 -50.224998 l -15.464320 -50.224998 l -15.464320 -52.424998 l f
0.000000 0.000000 0.000000 srgb
n -39.300000 -52.424998 m -39.300000 -50.224998 l -15.464320 -50.224998 l -15.464320 -52.424998 l cp s
/Courier-BoldOblique ff 1.200000 scf sf
0.000000 0.000000 0.000000 srgb
(TempoController) dup sw 2 div -27.382160 ex sub -50.460998 m gs 1 -1 sc sh gr
1.000000 1.000000 1.000000 srgb
n -39.300000 -50.224998 m -39.300000 -49.824998 l -15.464320 -49.824998 l -15.464320 -50.224998 l f
0.000000 0.000000 0.000000 srgb
n -39.300000 -50.224998 m -39.300000 -49.824998 l -15.464320 -49.824998 l -15.464320 -50.224998 l cp s
1.000000 1.000000 1.000000 srgb
n -39.300000 -49.824998 m -39.300000 -44.824998 l -15.464320 -44.824998 l -15.464320 -49.824998 l f
0.000000 0.000000 0.000000 srgb
n -39.300000 -49.824998 m -39.300000 -44.824998 l -15.464320 -44.824998 l -15.464320 -49.824998 l cp s
/Courier-Oblique ff 0.800000 scf sf
0.000000 0.000000 0.000000 srgb
(+getTempo\(\): PerformanceTempo) -39.150000 -49.060998 m gs 1 -1 sc sh gr
/Courier-Oblique ff 0.800000 scf sf
0.000000 0.000000 0.000000 srgb
(+setTempo\(tempo:PerformanceTempo\): void) -39.150000 -48.260998 m gs 1 -1 sc sh gr
/Courier-Oblique ff 0.800000 scf sf
0.000000 0.000000 0.000000 srgb
(+incrementTempo\(ts:TempoStep\): PerformanceTempo) -39.150000 -47.460998 m gs 1 -1 sc sh gr
/Courier-Oblique ff 0.800000 scf sf
0.000000 0.000000 0.000000 srgb
(+decrementTempo\(ts:TempoStep\): PerformanceTempo) -39.150000 -46.660998 m gs 1 -1 sc sh gr
/Courier-Oblique ff 0.800000 scf sf
0.000000 0.000000 0.000000 srgb
(+setTempoStep\(ts:TempoStep\): void) -39.150000 -45.860998 m gs 1 -1 sc sh gr
/Courier-Oblique ff 0.800000 scf sf
0.000000 0.000000 0.000000 srgb
(+getTempoStep\(\): TempoStep) -39.150000 -45.060998 m gs 1 -1 sc sh gr
0.100000 slw
[0.400000] 0 sd
[0.400000] 0 sd
0 slj
0 slc
0.000000 0.000000 0.000000 srgb
n -10.595221 -41.374998 m -10.595221 -20.724998 l -22.750001 -20.724998 l s
0 slj
1.000000 1.000000 1.000000 srgb
n -10.195221 -40.574998 m -10.595221 -41.374998 l -10.995221 -40.574998 l f
0.100000 slw
[] 0 sd
0 slj
0.000000 0.000000 0.000000 srgb
n -10.195221 -40.574998 m -10.595221 -41.374998 l -10.995221 -40.574998 l cp s
/Courier ff 0.800000 scf sf
0.100000 slw
[0.400000] 0 sd
[0.400000] 0 sd
0 slj
0 slc
0.000000 0.000000 0.000000 srgb
n -27.394400 -44.824998 m -27.394400 -39.174999 l -35.550000 -39.174999 l -35.550000 -31.124998 l -34.176400 -31.124998 l s
0 slj
1.000000 1.000000 1.000000 srgb
n -26.994400 -44.024998 m -27.394400 -44.824998 l -27.794400 -44.024998 l f
0.100000 slw
[] 0 sd
0 slj
0.000000 0.000000 0.000000 srgb
n -26.994400 -44.024998 m -27.394400 -44.824998 l -27.794400 -44.024998 l cp s
/Courier ff 0.800000 scf sf
0.100000 slw
[0.400000] 0 sd
[0.400000] 0 sd
0 slj
0 slc
0.000000 0.000000 0.000000 srgb
n -27.394400 -44.824998 m -27.394400 -39.174999 l -19.750000 -39.174999 l -19.750000 -31.274998 l -21.245199 -31.274998 l s
0 slj
1.000000 1.000000 1.000000 srgb
n -26.994400 -44.024998 m -27.394400 -44.824998 l -27.794400 -44.024998 l f
0.100000 slw
[] 0 sd
0 slj
0.000000 0.000000 0.000000 srgb
n -26.994400 -44.024998 m -27.394400 -44.824998 l -27.794400 -44.024998 l cp s
/Courier ff 0.800000 scf sf
0.100000 slw
[0.400000] 0 sd
[0.400000] 0 sd
0 slj
0 slc
0.000000 0.000000 0.000000 srgb
n -27.394400 -44.824998 m -27.394400 -39.174999 l -12.750000 -39.174999 l -12.750000 -20.724998 l -14.385201 -20.724998 l s
0 slj
1.000000 1.000000 1.000000 srgb
n -26.994400 -44.024998 m -27.394400 -44.824998 l -27.794400 -44.024998 l f
0.100000 slw
[] 0 sd
0 slj
0.000000 0.000000 0.000000 srgb
n -26.994400 -44.024998 m -27.394400 -44.824998 l -27.794400 -44.024998 l cp s
/Courier ff 0.800000 scf sf
0.100000 slw
[0.400000] 0 sd
[0.400000] 0 sd
0 slj
0 slc
0.000000 0.000000 0.000000 srgb
n -27.394400 -44.824998 m -27.394400 -39.174999 l -5.900000 -39.174999 l -5.900000 -29.774998 l -4.912399 -29.774998 l s
0 slj
1.000000 1.000000 1.000000 srgb
n -26.994400 -44.024998 m -27.394400 -44.824998 l -27.794400 -44.024998 l f
0.100000 slw
[] 0 sd
0 slj
0.000000 0.000000 0.000000 srgb
n -26.994400 -44.024998 m -27.394400 -44.824998 l -27.794400 -44.024998 l cp s
/Courier ff 0.800000 scf sf
0.100000 slw
[0.400000] 0 sd
[0.400000] 0 sd
0 slj
0 slc
0.000000 0.000000 0.000000 srgb
n -27.394400 -44.824998 m -27.394400 -39.174999 l 15.688800 -39.174999 l 15.688800 -37.450000 l s
0 slj
1.000000 1.000000 1.000000 srgb
n -26.994400 -44.024998 m -27.394400 -44.824998 l -27.794400 -44.024998 l f
0.100000 slw
[] 0 sd
0 slj
0.000000 0.000000 0.000000 srgb
n -26.994400 -44.024998 m -27.394400 -44.824998 l -27.794400 -44.024998 l cp s
/Courier ff 0.800000 scf sf
0.100000 slw
[] 0 sd
0 slj
0 slc
0.000000 0.000000 0.000000 srgb
n -14.385201 -17.124998 m -14.385201 -10.975000 l -14.680000 -10.975000 l s
/Courier ff 0.800000 scf sf
0.100000 slw
[] 0 sd
0 slj
0 slc
0.000000 0.000000 0.000000 srgb
n -8.160000 -6.075000 m 8.250000 -6.075000 l 8.250000 -29.250000 l 7.700000 -29.250000 l s
/Courier ff 0.800000 scf sf
