%!PS-Adobe-2.0 EPSF-2.0
%%Title: /home/cannam/rosegarden/doc/architecture/overview.dia
%%Creator: dia pre-alpha...
%%CreationDate: Wed Nov 25 22:07:22 1998
%%For: a user
%%Orientation: Portrait
%%BoundingBox: 0 0 1207.023703 1001.181044
%%Pages: 0
%%BeginSetup
%%EndSetup
%%Magnification: 1.0000
%%EndComments
/cp {closepath} bind def
/c {curveto} bind def
/f {fill} bind def
/a {arc} bind def
/ef {eofill} bind def
/ex {exch} bind def
/gr {grestore} bind def
/gs {gsave} bind def
/sa {save} bind def
/rs {restore} bind def
/l {lineto} bind def
/m {moveto} bind def
/rm {rmoveto} bind def
/n {newpath} bind def
/s {stroke} bind def
/sh {show} bind def
/slc {setlinecap} bind def
/slj {setlinejoin} bind def
/slw {setlinewidth} bind def
/srgb {setrgbcolor} bind def
/rot {rotate} bind def
/sc {scale} bind def
/sd {setdash} bind def
/ff {findfont} bind def
/sf {setfont} bind def
/scf {scalefont} bind def
/sw {stringwidth pop} bind def
/tr {translate} bind def

/ellipsedict 8 dict def
ellipsedict /mtrx matrix put
/ellipse
{ ellipsedict begin
   /endangle exch def
   /startangle exch def
   /yrad exch def
   /xrad exch def
   /y exch def
   /x exch def   /savematrix mtrx currentmatrix def
   x y tr xrad yrad sc
   0 0 1 startangle endangle arc
   savematrix setmatrix
   end
} def

28.346000 -28.346000 scale
-1.650000 -36.920011 translate
%%EndProlog


1.000000 1.000000 1.000000 srgb
n 1.700000 1.650000 m 1.700000 7.250000 l 22.550000 7.250000 l 22.550000 1.650000 l f
0.100000 slw
[] 0 sd
0 slj
0.000000 0.000000 0.000000 srgb
n 1.700000 1.650000 m 1.700000 7.250000 l 22.550000 7.250000 l 22.550000 1.650000 l cp s
1.000000 1.000000 1.000000 srgb
n 2.350000 9.700000 m 2.350000 19.900000 l 27.700000 19.900000 l 27.700000 9.700000 l f
0.100000 slw
[] 0 sd
0 slj
0.000000 0.000000 0.000000 srgb
n 2.350000 9.700000 m 2.350000 19.900000 l 27.700000 19.900000 l 27.700000 9.700000 l cp s
1.000000 1.000000 1.000000 srgb
n 10.000000 21.900000 m 10.000000 31.650000 l 29.900000 31.650000 l 29.900000 21.900000 l f
0.100000 slw
[] 0 sd
0 slj
0.000000 0.000000 0.000000 srgb
n 10.000000 21.900000 m 10.000000 31.650000 l 29.900000 31.650000 l 29.900000 21.900000 l cp s
0.100000 slw
[] 0 sd
1.000000 1.000000 1.000000 srgb
n 10.650000 11.300000 m 10.650000 13.500000 l 16.346000 13.500000 l 16.346000 11.300000 l f
0.000000 0.000000 0.000000 srgb
n 10.650000 11.300000 m 10.650000 13.500000 l 16.346000 13.500000 l 16.346000 11.300000 l cp s
1.000000 1.000000 1.000000 srgb
n 10.650000 10.400000 m 10.650000 11.300000 l 12.150000 11.300000 l 12.150000 10.400000 l f
0.000000 0.000000 0.000000 srgb
n 10.650000 10.400000 m 10.650000 11.300000 l 12.150000 11.300000 l 12.150000 10.400000 l cp s
/Courier ff 0.800000 scf sf
0.000000 0.000000 0.000000 srgb
(Rosegarden) 10.950000 12.264000 m gs 1 -1 sc sh gr
0.000000 0.000000 0.000000 srgb
(Server) 10.950000 13.064000 m gs 1 -1 sc sh gr
0.100000 slw
[] 0 sd
1.000000 1.000000 1.000000 srgb
n 14.850000 24.200000 m 14.850000 25.600000 l 20.056400 25.600000 l 20.056400 24.200000 l f
0.000000 0.000000 0.000000 srgb
n 14.850000 24.200000 m 14.850000 25.600000 l 20.056400 25.600000 l 20.056400 24.200000 l cp s
1.000000 1.000000 1.000000 srgb
n 14.850000 23.300000 m 14.850000 24.200000 l 16.350000 24.200000 l 16.350000 23.300000 l f
0.000000 0.000000 0.000000 srgb
n 14.850000 23.300000 m 14.850000 24.200000 l 16.350000 24.200000 l 16.350000 23.300000 l cp s
/Courier ff 0.800000 scf sf
0.000000 0.000000 0.000000 srgb
(Performer) 15.150000 25.164000 m gs 1 -1 sc sh gr
0.100000 slw
[] 0 sd
1.000000 1.000000 1.000000 srgb
n 17.900000 16.800000 m 17.900000 19.000000 l 26.068480 19.000000 l 26.068480 16.800000 l f
0.000000 0.000000 0.000000 srgb
n 17.900000 16.800000 m 17.900000 19.000000 l 26.068480 19.000000 l 26.068480 16.800000 l cp s
1.000000 1.000000 1.000000 srgb
n 17.900000 15.900000 m 17.900000 16.800000 l 19.400000 16.800000 l 19.400000 15.900000 l f
0.000000 0.000000 0.000000 srgb
n 17.900000 15.900000 m 17.900000 16.800000 l 19.400000 16.800000 l 19.400000 15.900000 l cp s
/Courier ff 0.800000 scf sf
0.000000 0.000000 0.000000 srgb
(Incoming) 18.200000 17.764000 m gs 1 -1 sc sh gr
0.000000 0.000000 0.000000 srgb
(Note Marshaller) 18.200000 18.564000 m gs 1 -1 sc sh gr
0.100000 slw
[] 0 sd
1.000000 1.000000 1.000000 srgb
n 3.850000 16.800000 m 3.850000 19.000000 l 12.018480 19.000000 l 12.018480 16.800000 l f
0.000000 0.000000 0.000000 srgb
n 3.850000 16.800000 m 3.850000 19.000000 l 12.018480 19.000000 l 12.018480 16.800000 l cp s
1.000000 1.000000 1.000000 srgb
n 3.850000 15.900000 m 3.850000 16.800000 l 5.350000 16.800000 l 5.350000 15.900000 l f
0.000000 0.000000 0.000000 srgb
n 3.850000 15.900000 m 3.850000 16.800000 l 5.350000 16.800000 l 5.350000 15.900000 l cp s
/Courier ff 0.800000 scf sf
0.000000 0.000000 0.000000 srgb
(Outgoing) 4.150000 17.764000 m gs 1 -1 sc sh gr
0.000000 0.000000 0.000000 srgb
(Note Marshaller) 4.150000 18.564000 m gs 1 -1 sc sh gr
0.100000 slw
[] 0 sd
1.000000 1.000000 1.000000 srgb
n 3.000000 3.750000 m 3.000000 5.950000 l 9.210080 5.950000 l 9.210080 3.750000 l f
0.000000 0.000000 0.000000 srgb
n 3.000000 3.750000 m 3.000000 5.950000 l 9.210080 5.950000 l 9.210080 3.750000 l cp s
1.000000 1.000000 1.000000 srgb
n 3.000000 2.850000 m 3.000000 3.750000 l 4.500000 3.750000 l 4.500000 2.850000 l f
0.000000 0.000000 0.000000 srgb
n 3.000000 2.850000 m 3.000000 3.750000 l 4.500000 3.750000 l 4.500000 2.850000 l cp s
/Courier ff 0.800000 scf sf
0.000000 0.000000 0.000000 srgb
(View 1) 3.300000 4.714000 m gs 1 -1 sc sh gr
0.000000 0.000000 0.000000 srgb
(eg Notation) 3.300000 5.514000 m gs 1 -1 sc sh gr
0.100000 slw
[] 0 sd
1.000000 1.000000 1.000000 srgb
n 13.900000 3.750000 m 13.900000 5.950000 l 21.089280 5.950000 l 21.089280 3.750000 l f
0.000000 0.000000 0.000000 srgb
n 13.900000 3.750000 m 13.900000 5.950000 l 21.089280 5.950000 l 21.089280 3.750000 l cp s
1.000000 1.000000 1.000000 srgb
n 13.900000 2.850000 m 13.900000 3.750000 l 15.400000 3.750000 l 15.400000 2.850000 l f
0.000000 0.000000 0.000000 srgb
n 13.900000 2.850000 m 13.900000 3.750000 l 15.400000 3.750000 l 15.400000 2.850000 l cp s
/Courier ff 0.800000 scf sf
0.000000 0.000000 0.000000 srgb
(View 2) 14.200000 4.714000 m gs 1 -1 sc sh gr
0.000000 0.000000 0.000000 srgb
(eg piano-roll) 14.200000 5.514000 m gs 1 -1 sc sh gr
0.100000 slw
[] 0 sd
1.000000 1.000000 1.000000 srgb
n 13.200000 28.600000 m 13.200000 30.000000 l 18.430880 30.000000 l 18.430880 28.600000 l f
0.000000 0.000000 0.000000 srgb
n 13.200000 28.600000 m 13.200000 30.000000 l 18.430880 30.000000 l 18.430880 28.600000 l cp s
1.000000 1.000000 1.000000 srgb
n 13.200000 27.700000 m 13.200000 28.600000 l 14.700000 28.600000 l 14.700000 27.700000 l f
0.000000 0.000000 0.000000 srgb
n 13.200000 27.700000 m 13.200000 28.600000 l 14.700000 28.600000 l 14.700000 27.700000 l cp s
/Courier ff 0.800000 scf sf
0.000000 0.000000 0.000000 srgb
(MIDI play) 13.500000 29.564000 m gs 1 -1 sc sh gr
0.100000 slw
[] 0 sd
1.000000 1.000000 1.000000 srgb
n 21.950000 28.600000 m 21.950000 30.000000 l 28.160080 30.000000 l 28.160080 28.600000 l f
0.000000 0.000000 0.000000 srgb
n 21.950000 28.600000 m 21.950000 30.000000 l 28.160080 30.000000 l 28.160080 28.600000 l cp s
1.000000 1.000000 1.000000 srgb
n 21.950000 27.700000 m 21.950000 28.600000 l 23.450000 28.600000 l 23.450000 27.700000 l f
0.000000 0.000000 0.000000 srgb
n 21.950000 27.700000 m 21.950000 28.600000 l 23.450000 28.600000 l 23.450000 27.700000 l cp s
/Courier ff 0.800000 scf sf
0.000000 0.000000 0.000000 srgb
(MIDI record) 22.250000 29.564000 m gs 1 -1 sc sh gr
0.100000 slw
[1.000000] 0 sd
[0.400000] 0 sd
0 slj
0 slc
0.000000 0.000000 0.000000 srgb
n 6.105040 5.950000 m 6.105040 8.050000 l 13.498000 8.050000 l 13.498000 11.300000 l s
0.100000 slw
[] 0 sd
0 slj
0 slc
0.000000 0.000000 0.000000 srgb
n 13.248000 10.500000 m 13.498000 11.300000 l 13.748000 10.500000 l s
/Courier ff 0.800000 scf sf
0.100000 slw
[0.400000] 0 sd
[0.400000] 0 sd
0 slj
0 slc
0.000000 0.000000 0.000000 srgb
n 17.494640 5.950000 m 17.494640 8.050000 l 14.500000 8.050000 l 14.500000 11.350011 l s
0.100000 slw
[] 0 sd
0 slj
0 slc
0.000000 0.000000 0.000000 srgb
n 14.250000 10.550011 m 14.500000 11.350011 l 14.750000 10.550011 l s
/Courier ff 0.800000 scf sf
0.100000 slw
[0.400000] 0 sd
[0.400000] 0 sd
0 slj
0 slc
0.000000 0.000000 0.000000 srgb
n 7.934240 16.800000 m 7.934240 15.050000 l 13.498000 15.050000 l 13.498000 13.500000 l s
0.100000 slw
[] 0 sd
0 slj
0 slc
0.000000 0.000000 0.000000 srgb
n 13.748000 14.300000 m 13.498000 13.500000 l 13.248000 14.300000 l s
/Courier ff 0.800000 scf sf
0.100000 slw
[0.400000] 0 sd
[0.400000] 0 sd
0 slj
0 slc
0.000000 0.000000 0.000000 srgb
n 21.984240 16.800000 m 21.984240 15.000000 l 15.850000 15.000000 l 15.850000 13.550000 l s
0.100000 slw
[] 0 sd
0 slj
0 slc
0.000000 0.000000 0.000000 srgb
n 16.100000 14.350000 m 15.850000 13.550000 l 15.600000 14.350000 l s
/Courier ff 0.800000 scf sf
0.100000 slw
[0.400000] 0 sd
[0.400000] 0 sd
0 slj
0 slc
0.000000 0.000000 0.000000 srgb
n 17.453200 25.600000 m 17.453200 27.050000 l 16.450000 27.050000 l 16.450000 28.550000 l s
0.100000 slw
[] 0 sd
0 slj
0 slc
0.000000 0.000000 0.000000 srgb
n 16.200000 27.750000 m 16.450000 28.550000 l 16.700000 27.750000 l s
/Courier ff 0.800000 scf sf
0.100000 slw
[0.400000] 0 sd
[0.400000] 0 sd
0 slj
0 slc
0.000000 0.000000 0.000000 srgb
n 18.850000 25.600000 m 18.850000 27.000000 l 25.055040 27.000000 l 25.055040 28.600000 l s
0.100000 slw
[] 0 sd
0 slj
0 slc
0.000000 0.000000 0.000000 srgb
n 24.805040 27.800000 m 25.055040 28.600000 l 25.305040 27.800000 l s
/Courier ff 0.800000 scf sf
0.100000 slw
[0.400000] 0 sd
[0.400000] 0 sd
0 slj
0 slc
0.000000 0.000000 0.000000 srgb
n 14.650000 13.500000 m 14.650000 21.000000 l 17.453200 21.000000 l 17.453200 24.200000 l s
0.100000 slw
[] 0 sd
0 slj
0 slc
0.000000 0.000000 0.000000 srgb
n 17.203200 23.400000 m 17.453200 24.200000 l 17.703200 23.400000 l s
/Courier ff 0.800000 scf sf
0.100000 slw
[0.400000] 0 sd
[0.400000] 0 sd
0 slj
0 slc
0.000000 0.000000 0.000000 srgb
n 7.934240 19.000000 m 7.934240 24.900000 l 14.850000 24.900000 l s
0.100000 slw
[] 0 sd
0 slj
0 slc
0.000000 0.000000 0.000000 srgb
n 14.050000 25.150000 m 14.850000 24.900000 l 14.050000 24.650000 l s
/Courier ff 0.800000 scf sf
0.100000 slw
[0.400000] 0 sd
[0.400000] 0 sd
0 slj
0 slc
0.000000 0.000000 0.000000 srgb
n 21.984240 19.000000 m 21.984240 24.900000 l 20.056400 24.900000 l s
0.100000 slw
[] 0 sd
0 slj
0 slc
0.000000 0.000000 0.000000 srgb
n 20.856400 24.650000 m 20.056400 24.900000 l 20.856400 25.150000 l s
/Courier ff 0.800000 scf sf
0.100000 slw
[0.400000] 0 sd
[0.400000] 0 sd
0 slj
0 slc
0.000000 0.000000 0.000000 srgb
n 24.350000 5.450000 m 24.350000 5.450000 l 27.000000 5.450000 l s
0.100000 slw
[] 0 sd
0 slj
0 slc
0.000000 0.000000 0.000000 srgb
n 26.200000 5.700000 m 27.000000 5.450000 l 26.200000 5.200000 l s
/Courier ff 0.800000 scf sf
1.000000 1.000000 1.000000 srgb
n 24.300000 2.450000 m 24.300000 4.000000 l 26.900000 4.000000 l 26.900000 2.450000 l f
0.100000 slw
[] 0 sd
0 slj
0.000000 0.000000 0.000000 srgb
n 24.300000 2.450000 m 24.300000 4.000000 l 26.900000 4.000000 l 26.900000 2.450000 l cp s
/Courier ff 1.000000 scf sf
0.000000 0.000000 0.000000 srgb
(Likely process boundary) 27.600000 3.550000 m gs 1 -1 sc sh gr
/Courier ff 1.000000 scf sf
0.000000 0.000000 0.000000 srgb
(Client of) 27.650000 5.700000 m gs 1 -1 sc sh gr
/Courier ff 1.000000 scf sf
0.000000 0.000000 0.000000 srgb
(\(*\)) 17.750000 21.050011 m gs 1 -1 sc sh gr
/Courier ff 1.000000 scf sf
0.000000 0.000000 0.000000 srgb
(Process block diagram) 3.800000 34.000011 m gs 1 -1 sc sh gr
/Courier ff 1.000000 scf sf
0.000000 0.000000 0.000000 srgb
(\(Client-server relationship is one-way.) 3.800000 35.750011 m gs 1 -1 sc sh gr
0.000000 0.000000 0.000000 srgb
(Unacknowledged notifications may go the other way.\)) 3.800000 36.750011 m gs 1 -1 sc sh gr
/Courier ff 1.000000 scf sf
0.000000 0.000000 0.000000 srgb
(\(*\) Server is client) 31.700000 20.470022 m gs 1 -1 sc sh gr
0.000000 0.000000 0.000000 srgb
(of Performer for) 31.700000 21.470022 m gs 1 -1 sc sh gr
0.000000 0.000000 0.000000 srgb
(Instrument mappings) 31.700000 22.470022 m gs 1 -1 sc sh gr
